…
Total number of homicides in each city, and the number of unsolved
homicides.

``` r
aggregate_df = 
  homicide_df %>% 
  group_by(city_state) %>% 
  summarize(
    homicide_total = n(),
    homicide_unresolved = sum(resolved == "unresolved")
  ) %>% arrange(desc(homicide_total))
aggregate_df
```

    ## # A tibble: 50 x 3
    ##    city_state       homicide_total homicide_unresolved
    ##    <chr>                     <int>               <int>
    ##  1 Chicago, IL                5535                4073
    ##  2 Philadelphia, PA           3037                1360
    ##  3 Houston, TX                2942                1493
    ##  4 Baltimore, MD              2827                1825
    ##  5 Detroit, MI                2519                1482
    ##  6 Los Angeles, CA            2257                1106
    ##  7 St. Louis, MO              1677                 905
    ##  8 Dallas, TX                 1567                 754
    ##  9 Memphis, TN                1514                 483
    ## 10 New Orleans, LA            1434                 930
    ## # … with 40 more rows
…
